1 1 1
18 4 21
1 1000 179
1 3000 217
3000 6 217
1 999999 525
501 499 111
500 501 111
131597 378056 443
29787 98901 351
282244 822544 509
56922 510761 449
643476 684008 442
163020 904866 525
647496 253661 509
346403 195844 443
329296 609953 470
868042 953905 507
462141 615934 470
465103 942868 525
857563 811976 525
854772 733722 525
568258 250605 470
198720 578326 470
463561 864767 525
823972 963094 525
701423 654571 442
155948 90545 375
390508 311047 441
889907 489378 525
615173 138575 470
831608 671753 504
598072 171979 470
734038 304492 509
52486 172610 383
791887 914935 525
371896 682524 509
430976 951616 525
193768 528699 470
671759 551604 509
754138 211880 509
969265 690803 525
832060 852755 525
599357 399911 470
561116 154711 470
410064 961215 525
107798 381973 443
632998 159591 509
452184 146096 449
475740 705058 509
842996 270952 525
794993 383964 509
623693 261865 470
758405 990681 525
155884 323264 443
488667 435976 444
767040 763517 362
153971 495051 449
63542 282660 443
560461 716312 509
253876 793546 509
66541 257553 443
861087 212681 525
532858 379077 470
147630 737067 509
121055 28526 354
150672 461664 449
45238 254965 443
774323 268819 509
685879 170746 509
902591 504226 525
242629 541249 470
891072 74630 525
126748 606505 470
886558 920711 476
864811 762203 525
581592 129380 470
822107 425617 509
163861 676432 509
741971 459229 509
504653 857322 525
395760 990258 525
491490 713407 509
599488 547468 434
570493 320988 470
693294 596695 509
148560 281016 443
296333 662023 509
629369 387328 509
622951 590335 447
195646 472063 449
489661 955361 525
139832 207781 383
554216 25424 470
221387 9226 386
741314 740701 362
206532 460338 449
80470 744236 509
241781 838637 525
55156 401486 443
403604 290858 441
356916 288868 441
44553 665812 509
838932 310910 525
481196 652238 509
98511 19402 351
351364 193301 443
620912 913255 525
649249 116138 509
629241 181304 509
543325 534336 408
177240 653777 509
51297 658292 509
276282 985901 525
436518 206905 449
705620 601671 509
697985 65417 509
790078 546084 509
765139 83303 509
368599 213067 443
314295 7146 443
867467 335522 525
306750 520590 470
47194 426446 449
319824 750451 509
661430 81166 509
368210 527147 470
436527 542706 470
343749 619104 470
774366 356561 509
797983 534322 509
845295 174011 525
530599 232643 470
830917 907779 525
935238 637058 525
577078 393212 470
979641 564347 525
106433 870801 525
29203 666317 509
43376 427624 449
51672 66203 340
668483 217465 509
490094 155942 449
96499 185317 383
652645 749862 504
267501 455668 449
177472 384042 443
541334 714647 509
250971 684630 509
905129 859715 445
585083 880330 525
898375 744035 525
704362 272631 509
785326 928405 525
200588 63566 383
565009 621340 447
116300 120807 336
662769 817676 504
