1 10 20
100 200 125
201 210 89
900 1000 174
147 545 144
136130 71321 354
58089 32950 340
339873 150039 443
284785 284788 221
85793 69300 351
465395 678623 509
814788 631515 504
261843 952057 525
903885 881304 445
582726 252939 470
404046 358483 436
482405 858132 525
926664 109407 525
202486 408809 443
260793 842483 525
148573 333834 443
586199 561656 434
919443 693654 525
421526 408856 449
828073 39241 509
618965 724840 509
140806 823736 509
451203 373489 449
944737 585739 525
930452 367136 525
48755 498027 449
561881 507172 470
222 514560 470
803273 913050 525
228401 572595 470
720904 859047 525
135177 431239 449
822656 207035 509
623634 49126 470
334789 740283 509
840080 198736 525
103720 220150 386
856303 357662 525
194616 944105 525
420737 895987 525
218305 91700 386
983430 59992 525
301144 345386 384
725156 676532 504
70490 498947 449
895465 947045 507
891687 190069 525
358512 345328 441
603851 652461 509
931817 533300 525
812273 443529 509
945924 830889 525
71772 986030 525
356330 971516 525
244197 372642 441
750300 673153 504
932521 692247 525
179339 513463 470
353957 935265 525
346879 337328 441
873821 198207 525
697496 15439 509
254645 522036 470
121966 438188 449
668794 879040 525
251743 493805 449
227595 949801 525
434775 834227 509
690452 606244 509
81322 144575 375
796565 61032 509
35182 587021 470
44893 577691 470
38321 56603 340
354309 856658 525
647956 134891 509
255461 783777 509
703898 695080 411
199427 629924 509
227417 631667 509
799389 442922 509
880955 617917 525
541480 719064 509
110115 580403 470
456728 502246 444
830572 627774 504
137541 594292 470
516711 68031 470
950520 741514 525
217057 178337 386
482636 193994 449
990020 647938 525
216320 100933 383
404697 911268 525
878400 919016 476
364812 482033 449
731910 594340 509
360357 292568 441
256261 247253 363
454707 308362 449
606740 796118 509
683182 409882 509
673011 84369 509
429860 737408 509
619552 611533 447
819942 872168 525
975374 690900 525
356232 327211 441
58758 954111 525
59140 687698 509
284413 152679 443
833876 51475 509
12513 644848 509
216614 289414 443
646402 863065 525
162502 140881 383
631800 675169 442
699052 385305 509
784117 11316 509
202545 148796 383
399366 264963 441
869822 145729 525
155836 869602 525
883885 160720 525
160033 867009 525
664724 397660 509
4826 873170 525
142331 572221 470
88049 206560 383
298237 502885 449
229488 885122 525
295434 580615 470
967168 93026 525
989380 280362 525
766500 965809 525
756105 677378 504
16690 786610 509
36812 73975 340
965440 151003 525
349751 289946 441
574753 434188 470
950162 492393 525
257429 832016 509
893743 406170 525
950516 656618 525
277712 546200 470
82411 542620 470
263694 117407 443
942987 485856 525
982225 535363 525
967066 387131 525
430939 905472 525
794618 209099 509
434971 30849 449
98796 178378 383
396921 590665 470
867557 212312 525
817875 738705 468
647771 974393 525
762153 955370 525
318481 220904 443
45657 628673 509
520674 585993 452
705368 894603 525
289416 609144 470
694295 318439 509
507613 562232 470
255719 186961 443
516107 127135 470
929972 490040 525
600581 468302 470
362389 622127 470
769050 202444 509
495099 641745 509
921341 395578 525
590099 84839 470
986144 189808 525
734509 947656 525
504785 507270 382
807242 700110 504
514529 421748 470
41116 449013 449
604706 125161 470
480116 697294 509
281087 762451 509
876757 232900 525
622432 984816 525
628306 305561 509
387229 880632 525
798596 472900 509
968721 753294 525
190446 93308 383
294151 184559 443
628501 56142 509
764415 787744 468
625631 48034 470
321694 139240 443
107869 752476 509
482004 964172 525
286907 472519 449
756603 686463 504
605978 490229 470
226038 565930 470
35756 587634 470
560073 2631 470
635875 489810 509
394981 607961 470
358177 286660 441
996542 354226 525
855595 808021 525
116738 805695 509
563448 725813 509
595420 141648 470
5498 177016 383
470297 803142 509
36973 390980 443
625602 510669 470
396650 974538 525
805869 821124 450
343318 664982 509
630005 331278 509
794318 895604 525
580789 702244 509
525788 229392 470
162718 932569 525
437011 524816 470
790977 819841 468
518658 709030 509
844816 592711 525
320014 266360 407
308311 899023 525
552731 76630 470
338048 942110 525
880038 558180 525
682706 528017 509
694640 742749 504
149883 300058 443
274665 4329 443
235854 492915 449
63921 293395 443
297859 651965 509
333285 236865 407
926762 914308 445
685431 600159 509
912450 632451 525
218044 998698 525
373733 518748 470
580007 582428 328
272760 52755 443
839566 491687 525
25685 58517 340
482071 502446 426
655209 446062 509
798732 35155 509
