920998 705010 525
129654 610909 470
481557 467461 413
861188 232457 525
670480 757961 504
372086 793739 509
877232 697391 525
945277 976567 458
821673 803852 450
938673 667561 525
215905 579487 470
371420 39661 443
918164 522301 525
886228 919156 476
85487 648625 509
182471 113958 383
178382 60738 383
738600 816689 468
828538 873724 525
67523 967158 525
381284 661657 509
736438 409576 509
145729 148360 357
623070 323875 470
232532 651356 509
433440 200619 449
884253 806392 525
808927 427724 509
360050 115711 443
247950 286439 407
934019 863199 476
21730 511337 449
13775 483425 449
922929 561988 525
135194 329107 443
162910 723615 509
7214 177678 383
501914 42797 449
775031 299279 509
94542 242717 443
922123 775248 525
777683 734940 468
778826 424645 509
96893 125399 354
533736 604917 452
966029 227695 525
810871 310017 509
742716 704598 504
670358 612708 509
160838 515371 470
173543 71415 383
958264 299393 525
108780 488298 449
603599 795757 509
532255 564172 452
78930 379784 443
39138 943685 525
199467 524313 470
3633 305252 443
302184 867972 525
212239 621939 470
990119 98683 525
702733 346983 509
107077 533794 470
594266 380292 470
780702 542530 509
228639 662444 509
619638 448399 470
508417 552177 470
354072 204595 443
864755 359476 525
298138 240412 407
229910 932502 525
898732 608095 525
891681 628103 525
431376 292020 449
428357 721757 509
785952 625851 509
4194 646059 509
132856 208139 383
338459 436336 449
476747 721565 509
814578 203169 509
884954 337405 525
582490 614040 434
362377 368298 361
186183 907927 525
664399 709224 504
222213 564443 470
69641 203659 383
130804 606092 470
828062 246443 509
271168 20305 443
654184 725725 504
852380 862983 419
207711 28849 383
786070 837261 468
6147 245080 443
261334 125266 443
304010 949704 525
652519 663872 429
154736 559661 470
195385 730984 509
825019 405529 509
958440 306663 525
389381 631514 509
174451 839359 525
25489 339466 443
273926 820858 509
995730 138684 525
359381 563631 470
226184 169229 386
524823 580423 452
677174 436850 509
943374 426936 525
952930 744760 525
415779 864206 525
121189 485326 449
675900 811479 504
766524 340409 509
110652 761929 509
381129 398971 436
591730 308244 470
85067 124531 354
401156 27964 443
125282 950437 525
992513 858460 507
270245 383903 441
185052 875791 525
695003 880759 525
699931 907647 525
297054 170115 443
535663 874301 525
181440 746624 509
939818 112439 525
76334 200066 383
868278 771122 525
865337 113640 525
889042 841273 445
259606 767367 509
859664 911946 476
868219 774360 525
697625 399787 509
687188 553429 509
111320 8564 354
41865 357314 443
154782 422679 449
276838 243215 407
396424 542443 470
945686 262431 525
414324 801601 509
94008 446723 449
116803 409368 443
148671 2545 375
160076 779447 509
425803 992888 525
362773 736840 509
295983 966216 525
838537 330232 525
639345 857584 525
700633 94086 509
930548 615185 525
769502 859346 525
507541 469078 426
17168 299932 443
268969 467542 449
48239 772744 509
913792 825480 525
106631 603153 470
390010 575186 470
980473 637120 525
398468 420744 449
9287 848270 525
343995 79080 443
455753 855478 525
107666 424323 449
600297 451263 470
369507 446036 449
419206 610758 470
670417 402678 509
816274 507239 509
451857 398347 449
250205 288976 407
890713 429809 525
11393 465623 449
907654 989044 507
506825 85202 449
874834 652069 525
490160 453666 444
457779 588551 470
860864 177515 525
538302 857224 525
641188 2029 509
377580 730128 509
640127 52778 509
906264 132722 525
673832 25514 509
822589 805061 450
674292 676552 385
838943 670536 525
942484 744162 525
447297 476818 444
182775 903318 525
858843 451302 525
292689 670222 509
800908 713664 468
858175 344645 525
30577 943119 525
378727 655038 509
909249 415335 525
527200 918446 525
204121 829360 509
650382 160441 509
141073 782262 509
839269 688253 525
719639 713409 380
863111 651479 525
92892 894511 525
125595 851778 525
876313 372809 525
375048 297281 441
957077 642107 525
878359 248307 525
722150 819844 468
802269 546064 509
137698 120789 344
143339 517887 470
869357 114346 525
300335 690029 509
592011 657657 509
75301 247668 443
92837 246336 443
344377 257245 407
677960 376066 509
236589 821945 509
449842 906207 525
472347 437570 444
11468 333019 443
554047 479167 470
278933 168639 443
417831 864498 525
322472 615054 470
793772 252107 509
757658 702445 504
987497 9062 525
122143 383575 443
21549 262444 443
834345 669841 504
487629 65442 449
78892 933268 525
472469 2515 449
932997 512801 525
147673 645257 509
20147 225042 386
174711 554164 470
918357 882086 476
17992 566871 470
518546 836177 509
913268 297998 525
160722 740110 509
789957 387430 509
987045 594886 525
167556 916735 525
998188 428041 525
881294 907318 445
23154 487822 449
343746 858263 525
49353 286676 443
957827 469191 525
502146 426338 444
803226 188960 509
699325 293623 509
151983 23344 375
650067 539023 509
254395 991252 525
203475 600477 470
30056 292170 443
121294 989829 525
698249 23195 509
758198 145342 509
524994 295860 470
996940 244890 525
163600 218925 386
688305 944409 525
956032 652710 525
106795 307261 443
524752 243309 470
2766 532219 470
809625 267688 509
563573 492729 470
654619 860124 525
851726 776237 525
380721 608028 470
243015 938184 525
30636 577624 470
